44935897,30255154,71162812, 67454650
18353950,43128513,54500356, 76457555
29911505,18682351,-5963496, 78858704
72679809,46787842,47249596, 73586633
34501215,40793040,90044972, 72208466
3194932,51989408,43028879, 88850417
25092729,77844007,18150719, 71709867
-21999679,38421725,74090244, 72846483
88032595,44770652,50363954, 90036567
44594065,59343959,47739972, 58547317
58713227,67854313,29354710, 84136876
25985974,92656428,60943460, 86455122
69801402,50140062,55329009, 82139773
-61785,33176880,76482110, 56443225
73044614,35878010,29167435, 69664673
42213536,61119197,24480646, 65776064
37258061,81202835,189615885, 84162509
58079693,13572238,54130808, 80249261
23044576,71798555,20922012, 60845077
31835899,22790246,98788596, 89445310
26446023,75055532,60183357, 68554156
33403299,69959428,72667022, 82899025
80842988,38734864,54123598, 80570840
49635958,55370844,45775153, 57651379
95052328,40637382,53638691, 96197685
55584389,17473392,65856218, 85578168
17754214,38709532,95398050, 58731031
38625234,63292716,33375838, 55465924
20905938,60927616,107236263, 95939149
47650429,57999883,53975690, 66495330
-45668149,43446598,36823750, 70680264
75180075,50442888,45039584, 77531782
-9432446,47437125,42089667, 86730581
40856506,44560660,99917280, 92203921
54316151,46592713,48550277, 56328381
26520777,70304897,89253517, 92948474
-68432877,42089678,37615290, 91296400
4370416,34125867,38455003, 62832743
38728283,75709046,20101549, 81259781
30383527,46377447,100425863, 84056235
63980971,19678233,17492881, 88475633
33338320,39538027,70447965, 50193600
28853508,75394696,46706318, 57823844
5040408,70911104,57717763, 61923045
36363681,79038537,25826131, 76499977
93545144,46411135,46798097, 93623793
82159103,62625263,46807510, 98461333
26950677,81852418,77563698, 93236329
-29766068,11168251,58948724, 90622777
38373061,1970498,51405061, 69418518
62419393,74754774,47815269, 91858716
3927115,50098897,86817288, 71324184
-6185447,55790106,59677637, 59987738
69074200,42038261,42856808, 60838883
86816090,84646307,-54166728, 69448582
64779109,43647949,48428184, 63724610
19902041,44657770,45381898, 77249651
20625445,83068138,73453459, 84016443
-22466486,42621719,50495983, 53918771
29199170,11713075,71945026, 71042123
-23486591,39392783,58701878, 59915850
86318593,50123668,49951519, 93263683
51128038,-4898006,58891254, 96528189
52222195,1785356,44532245, 76580261
-55783855,41250206,55971820, 91340540
81414270,31312320,42955675, 74668599
13650844,43861259,45303643, 93456211
44782943,71634614,23010423, 80330937
33572026,25116919,61273495, 51339513
21445979,41621170,34603402, 49948592
71913576,40189751,46513393, 65486014
60862887,41025470,58151787, 66909506
-17712132,59780733,52629786, 68457399
19690638,60725275,69981532, 57266680
29997289,65719111,74610325, 77196035
47893081,51291275,73013390, 79067003
67580601,40141784,37163171, 57483102
78009510,40613333,47055134, 72547765
65840300,44561688,78354697, 95625952
48056076,45110416,61881015, 61916801
73627174,47747297,34370778, 73927502
95135036,43555529,47529170, 93089602
23733630,62858456,96449671, 89911085
24373093,109157513,57455873, 97855917
62237702,10560512,64706472, 97994804
29885792,53042962,99060603, 88858600
22829428,93689938,23554761, 79888470
-10043688,49758301,75261387, 73398000
68596281,36043613,50689543, 64853211
-14054149,45818098,62039872, 60246754
27711860,-3032481,44035951, 56391203
20738822,54579577,41975484, 91861665
42937059,43853438,61667990, 55327863
34483244,55901781,71814819, 69069124
27349269,41068545,58042230, 52558566
39621007,44497307,64351721, 55339285
24861928,30723230,115989776, 91739520
81247031,41227673,38885471, 70513181
42452473,27147342,79355373, 76271803
40730310,72787397,59763828, 80150792
55436064,61786615,63319754, 87411867
87269530,33886864,60694566, 95688227
25166065,-1607738,49244717, 57629498
70174302,44039169,37528213, 63609062
73481859,53668762,38582617, 75491901
6946914,38717038,107895511, 78000195
-12914094,48075616,71055027, 70379294
71696799,45228675,30235731, 73613562
88928728,47456939,41495534, 84750454
83929900,33452592,49458733, 81546937
72051397,42726407,68204922, 89852194
34762688,39851999,70163064, 51647077
26353516,40187536,50376004, 70776419
71045665,50235351,69493731, 97644066
26258340,54254655,7069962, 60366936
30261308,38421564,42328944, 60790473
1332269,4773758,83313547, 90284358
25439745,97246505,46441239, 75996964
31537495,72405868,87327583, 98140248
43331533,51342239,70161210, 71704380
8817331,66334019,59091677, 54942966
29998097,61318476,84018038, 82203893
25261232,91616297,53132070, 76878893
27555433,29436254,95079349, 74809419
-51898792,57985755,45490886, 93709995
70731781,42811789,42443769, 62856587
1487336,79666345,44324550, 60838576
85709446,38980881,65648106, 97207676
85424347,40746006,43431793, 76471406
-19015794,42192335,67451855, 66994616
82899513,49459609,35694465, 83588468
39594029,30354843,18790637, 52114113
81536642,29155709,37517516, 76528886
17023067,54504679,54461155, 88782033
77828218,40198936,46804537, 71701008
80629043,54668248,46777441, 88943973
71377765,52142229,65828505, 96217779
-7403394,49799741,20315150, 55277100
79559936,13618887,49377397, 96929344
71415418,47883727,43401963, 69570344
1282181,91749473,58377873, 87179741
45226999,72064214,56410677, 80571185
-60463400,39578561,54051566, 92428103
57356343,15718046,25224281, 78079523
23444698,39102341,101183300, 70599590
19889367,93832817,54696718, 75288164
62464495,34261005,53121329, 62935718
46634507,45154953,52900253, 51559047
17868252,70130314,13751068, 61171346
68086256,41866334,21707634, 75168820
75194946,42295923,61110804, 85470910
48673521,33701706,75717175, 72300446
-24633428,48995319,45580380, 57543736
26951389,34704789,36322679, 69677308
-5649782,17855667,59568945, 60439348
152071936,98485748,61481335, 69305248
-18138085,58340951,62679513, 77493111
31474024,52164891,19943089, 50619800
79952830,43798113,47245683, 77865868
49773979,57385502,48184473, 62213325
17515475,69377204,67254081, 61016079
-38781741,38924498,43020259, 59061063
50768333,86702228,44495563, 88835607
29694898,55250276,41685830, 57883158
52619503,67388059,50473632, 77350463
65255062,47169494,62017399, 81311635
50229752,-4712285,43016750, 79569823
49374510,39390567,55569764, 51204235
52473971,45089635,48679805, 53112646
24942028,84063955,48075148, 63950398
-14490205,23845490,49609184, 53330099
-38783448,53604085,43106694, 73828816
4524115,86229990,49890888, 69931340
19904441,7636157,62282708, 56161893
76754175,3182871,42768060, 97950565
22500446,102191924,41599066, 73160679
-34024080,16533119,60822864, 91390197
66083314,35381505,86804970, 99117775
51998160,69246819,61378494, 89492736
19678402,82228502,48763683, 57539847
56259014,59667076,48019986, 70815376
-35657314,54299553,61334370, 89625861
-39306924,41148273,48182907, 66972715
36889455,49862327,76350844, 69971861
5041395,57948157,80543339, 71784701
-29563927,63630472,42994887, 74523980
-633351,45806314,10513483, 54315366
44250859,28936393,81977772, 78903129
26109521,61367535,69058588, 63404910
53734038,56188976,61225103, 78017456
41690218,47277275,22200187, 53691178
56241330,39664419,66056981, 68832384
46564865,8414054,195335738, 79001442
183327073,67436935,57512668, 74175291
-23123527,57385761,61021169, 79865050
42058687,47109423,61411324, 57448682
51336074,62993682,56726351, 77925493
29989389,78836786,56632784, 72328196
-37152504,49891551,45730215, 71109308
-34489590,47560778,45987152, 66372062
16733056,80536218,50010635, 54149187
53662586,68727992,52278744, 81538768
14051600,50673046,117178840, 92134837
62812740,42157910,36447428, 55447120
19710279,56187416,84746898, 67513841
51126530,45850108,61476688, 65322586
-26523757,58012548,57178042, 80048917
-21805419,13278587,5725270, 95932328
202752052,51581278,45877237, 64044698
60253358,46083043,69430178, 82636104
44097035,47108037,69726005, 67800313
33714248,25414052,10986227, 58979515
36656638,64771128,49389859, 57686871
96588090,44000600,42271014, 89729420
9507690,81674705,977130, 89579394
64176702,64362372,31921834, 83541124
32493670,45278536,42591216, 55292345
26592333,56780478,60493788, 50736009
21900598,42527334,47477367, 57053721
70310217,43713398,33104482, 67843007
25339994,76439309,84726754, 93375603
-5656483,55202477,14658939, 64589258
48077091,49357799,62815599, 67119745
39824150,43710346,78661326, 69065194
23266175,44099599,47134494, 51608330
17885705,47033944,112911597, 84700649
59979355,31005963,41406554, 51990877
90892298,41288487,36797989, 82306651
78155182,45503809,43654604, 74183390
61366514,50255861,77390899, 95882515
70678346,43170268,46116559, 66834412
96258200,40546931,41218217, 84893274
61776305,39433158,50584012, 58662711
46670865,36355707,42064155, 92197739
65419648,40603003,46294188, 59186086
-35106546,64531519,176289884, 61125307
83737336,39450773,48922113, 78979566
47099007,67879072,13764008, 88137886
80952246,40653047,41076098, 69550676
51509504,68731235,47313590, 74423578
-28287277,27612131,43779262, 57530619
77392675,32092131,43751020, 70662455
36418628,78956613,52855391, 75100161
87748695,50946220,41667799, 87231959
48546647,66482263,76908036, 98806200
27118119,48593393,76424465, 59005429
-19333920,47337466,70377064, 75383000
49555412,-9802817,33678351, 87345531
63233303,55887279,63575460, 89565314
74657354,61401396,44470782, 87398772
-45994399,41740028,41684141, 67753267
54999540,46081285,51929570, 59879639
-30119184,61533212,52906696, 82893789
19871862,82681590,13362984, 76114280
69440478,33125041,41552788, 59479510
18508027,46822791,50287340, 79613755
25031977,87644145,44479936, 64025372
71172215,42920663,37324159, 63692635
56824370,49111691,35465194, 57394736
-28688894,40732515,29938538, 57872082
66253158,28968945,50846108, 69741219
19849711,43772130,112203211, 82694438
27437553,22338547,63177583, 49887482
20731307,83181413,67214742, 77996705
58962672,64170780,43799901, 73803102
-5554452,16494144,53798192, 55934738
-30403760,63252586,54682727, 86673713
72145687,63301544,42386453, 84702952
90688721,40734934,44316508, 82609484
23601926,94147020,41401854, 66020039
89001062,54881672,42718873, 93471001
37122332,49288767,22037019, 51298083
40577020,63525246,43610236, 54581762
51890279,-10591915,49642210, 93735338
49847750,39892525,64953742, 61563256
85630381,43717036,61505614, 97722276
81326448,53293156,43145598, 84634535
37201027,-26150773,45817242, 90780057
49421142,68346518,36055057, 68636506
68245883,-72015127,89347059, 61189891
19335752,60874470,85346499, 72426062
65138887,51213072,42407267, 65628465
35191964,74650754,51551299, 68263257
39581244,30750804,71773476, 62214808
99342727,39679598,45156156, 91047718
155464239,-5441450,80591297, 78193358
17946869,90109841,61682338, 76608336
32891063,51443042,63872107, 55075466
57789732,39912312,46450503, 51021805
-62765397,44118023,44695036, 89913490
39080577,46478464,42902218, 64038273
57455288,67387648,12855426, 98911360
22482681,48592874,84055261, 62000070
44947611,66617460,54961200, 73395602
39035718,33942556,-12752880, 79511865
-7168259,63501875,78323275, 87327950
26723860,39283543,42377969, 63231205
19009248,43461264,99128350, 68468114
17529585,31299779,53511140, 92241850
-7687587,62344461,56614261, 64980911
73669494,47109458,50525750, 78174006
59535953,43251359,41832174, 51488723
-46258981,50043355,31304555, 83386897
25928376,40135637,116068028, 89001279
16863043,48762752,32315029, 95733343
-45014932,57034131,43700813, 84084676
20373486,71965566,68946068, 68154358
24540725,78050556,50019235, 59480204
30871573,67487810,84232863, 89461540
32296894,29089597,78520787, 63339707
49831136,6883581,27574330, 77038857
17750324,85577218,-6187476, 96438877
-28185671,33610252,47736010, 55387918
37365236,106993802,41485590, 92714649
82548912,17085291,46680471, 93755122
13277103,76319350,7492876, 73938616
6943686,90538267,50800334, 72729535
90630114,39996233,52954329, 90450173
56242041,31571197,50119411, 56401156
19850283,87350797,28933703, 65191211
30745010,81484249,67481201, 86579762
67371441,30208016,44091352, 62865669
40197112,44180303,17129187, 54172156
21276829,43595334,46654911, 68910209
86180807,56042058,48009071, 97101238
-34629239,30198368,41850137, 59357372
-32647491,42024548,35312260, 57748948
-19012709,80453646,52861020, 90661964
21156218,107748585,41826354, 77600444
32156511,67332102,61133439, 67491336
-23852123,16816279,47238361, 67350440
20483383,53100058,77371672, 57824595
22345120,94790932,55804926, 79810342
26263506,86339113,71394342, 90866196
22672567,91047479,61496681, 82085967
55759808,40116762,69064173, 71810030
34714186,48923617,59470724, 49977782
-34691612,68176445,43023892, 84226799
59105951,63020961,45207629, 74203796
59311566,59273197,62552422, 88006470
35437151,39351518,70849771, 52508085
50821404,67099835,14880362, 89964737
-26654597,66127977,56589570, 87706686
78529795,49715840,45089517, 80204553
20158538,92920994,62541527, 82490683
84125867,36229177,50796125, 80303706
62229821,43510064,47386214, 59995381
-50603640,31400496,44805706, 77085135
18092924,62384932,69018828, 56365940
-14206810,58704354,59147179, 70393132
26558373,-16599452,11213150, 93610353
39863441,-31972715,42301506, 95748555
18811965,73292623,94939827, 93913921
45028449,-7681807,47462952, 81784158
11989554,99145669,42476297, 67967052
52705333,91257818,44081649, 94914094
91786483,38406384,43386874, 80449000
50855681,94200270,42110911, 94036111
76148397,49298120,44110341, 76426313
78177125,43673189,45558505, 74278143
66975895,23154102,49769929, 75203154
48961036,53233016,46467290, 55530869
206101689,32174112,56098554, 52450634
1276025,40634050,78039941, 55732658
78216259,41932261,59190332, 86208088
17883132,18781775,74859169, 55571419
20947817,61661572,98801655, 88280319
79060316,44855366,46324040, 77109003
36993111,63272484,86203356, 93338417
64013110,29536709,46853304, 62940652
75284398,49041145,57537651, 88732552
20666030,48711548,107739542, 83986408
-2116611,58163923,54905005, 53520167
17326137,-83089486,132675228, 82263140
69384234,50574034,56363066, 83190569
28959461,48317114,65963299, 50109113
17402617,52025939,56811959, 94330599
32781570,41265969,88886936, 69803847
-43411334,53658442,54816373, 90220793
22062431,41080310,28075405, 50873272
45747499,25024003,52492427, 54826816
18880474,47411740,92257026, 65418874
-11921305,11939621,66809279, 79867195
29845077,53007224,4383169, 65393007
67673970,65413361,55004420, 94961007
-25612107,20006925,50441406, 69123078
53197174,83195179,55891460, 99153530
17187106,41905470,48186656, 62628075
23857603,57881290,34797952, 67624646
71523879,34036817,50258951, 69357741
51549081,44072015,91730038, 94220379
17694732,69454566,60203290, 54221881
18288797,83216098,46551898, 54926032
39924177,15170414,73586417, 79951190
227929,100347433,53983153, 92437222
64016422,39648875,54677847, 65212659
-19498758,73962533,44575525, 76371392
53694242,39250089,91188508, 91002096
21975275,48962856,100696829, 78504222
31282533,49821960,-9941387, 77969748
100224486,35495652,45458642, 91798404
3035661,54552394,60259754, 50111154
25887766,50625214,49789492, 98800332
44057784,87000636,52599077, 90526740
5635663,87953521,64790630, 85443305
30188973,23545768,2560761, 65747919
67814497,41306189,41092207, 57082201
-3333752,44166582,50426339, 55793241
64251037,25822409,78679035, 98718564
60499393,43254448,44056724, 54679957
18200375,46688871,48401746, 75568464
66321742,35596284,42092331, 54428702
67101123,51028334,38101541, 66951726
21240517,184753863,-20782708, 49881301
38601872,29964701,76025907, 66274020
46959526,57564227,-7908900, 99356560
50070839,51639247,8347630, 80286259
65748637,40400585,43545006, 56563760
21995346,80491099,52702790, 62058565
56422407,45671777,70954435, 79917927
59440842,78549595,54602601, 99462279
32182454,777348,75882359, 88898816
12330439,45815257,30012540, 60714204
37982048,72397048,56454856, 73703699
226654113,32565151,41751672, 53457683
30943019,-22904624,52742952, 88201525
83818313,43350769,46040623, 80079462
-25716696,68370451,48371461, 80793202
44780591,70169733,50451813, 72271588
-35916257,39389044,68172853, 81812837
20883442,22855304,92736688, 72375738
77813699,44710742,46142835, 75536703
33466442,75555255,15859162, 80086377
29442337,76976981,73079523, 86368113
33350947,71789045,29777053, 62286748
17589077,28241293,103823540, 74782259
49405212,64716533,55217857, 76208923
67233692,53510380,55457292, 83070644
49480995,41157891,54837982, 52346111
65443172,40759381,965650, 92160851
-5467934,14750596,63487073, 67280680
-15780425,14303687,30201141, 64406606
88126975,38814252,46084799, 79895264
50623827,45002744,48190581, 50686417
-22053452,41496928,89983345, 91868283
-48285549,58003246,43315427, 87938942
49485248,39620352,73905080, 69879932
63847777,38962659,42425731, 52105485
74335447,26273314,48747433, 78420608
-42359982,40131126,44936396, 65762459
69026475,44204817,53565653, 73666254
62366251,41501360,48687511, 59424648
17675509,74413386,59008576, 57967356
96469422,44237396,31006349, 96624667
43272607,45322966,100369275, 95834141
28017623,96007067,43251597, 74145673
21634219,69605446,61085942, 59195280
21450039,52852531,46025118, 89268181
44086014,33793562,-2049410, 74007479
23554321,63312689,82343443, 76079709
-73813436,41124395,44093707, 97366118
-18290456,57263513,51664329, 65552899
94739910,34764956,43837377, 85423236
33993191,56103385,56018470, 52984353
44897026,31776858,9632679, 65152968
46314006,93535020,47525623, 94243894
23657043,56501451,70101875, 57129647
63743157,66510618,57216912, 94340075
-17613415,38403458,92110665, 86462107
39404296,29514454,91705117, 83206048
-70839388,41255501,48910276, 99339776
74352482,53317122,18787936, 95805484
-26624872,72149063,43199147, 80307631
96537811,39227432,33519818, 89169352
56250592,45033852,45434888, 53588570
-13634953,54752865,19332200, 67444923
66600362,41846672,42859178, 58175801
39495987,14960657,47527657, 53673883
91261259,46013600,41506915, 85651015
4484728,40945094,47735250, 85075386
18601449,78162552,17659048, 66028779
-46969511,46563894,48722914, 80590967
26676316,33577356,47810870, 62001931
60789105,48831249,42968527, 59458233
70062677,54335483,51124216, 82392293
26896647,78529683,75003398, 87298991
82872754,39245362,41149861, 70137221
25117538,32502465,52890561, 75515014
48376285,39015322,58672728, 52933585
43079156,59832628,48149310, 57930395
17006477,51208285,52990940, 63825806
83177336,19757771,36672970, 88412054
25388799,64174223,71719148, 68151431
27037378,40810738,46757713, 81537430
88434240,41021292,45942106, 82267219
33756685,13335487,54636103, 56668240
37149186,9988086,15932091, 72894696
-17197179,67468087,61060741, 84060564
58688894,42566243,54904845, 63029605
-38152245,26533104,47032412, 71727854
12168255,52210080,71916897, 50293284
-10858962,42495316,41243527, 50536166
74929088,51947715,44510487, 78256549
75852324,64318903,44233238, 91273751
-24816040,88747678,43171272, 95069619
86424315,41621068,52051122, 86965740
-28713143,56335926,34386524, 69051657
52127369,38707380,52250750, 49954899
10660214,44332118,-17343298, 69404373
36609212,66192114,70112847, 79783508
24318253,-1794913,44775942, 52500196
27114336,70589962,51601907, 56175637
25681627,44474243,58697457, 70760191
20386659,215746148,1314057, 78808938
17993330,56989350,86452714, 68305197
23708434,50727335,9072315, 52287257
25636224,57953422,97346042, 87805047
41538406,42793476,81535408, 72736592
45568539,82419526,34558169, 80354087
20556607,107926921,41381222, 76733988
62026584,42226852,45146100, 56268772
62546772,5434025,46013324, 84737074
51700641,-3226338,45498487, 82036717
103036667,42891109,38612836, 94238901
20204670,-956415,3409249, 79417434
18597805,85523830,-5386013, 96431512
64536588,28510188,44319634, 61957275
51306141,65738397,55044134, 78957976
22723423,38516528,17516755, 68991333
19332126,22147725,84659082, 63454391
42413792,35863914,64849358, 53010211
57050702,62969388,66385622, 93275157
97752191,43707878,49215362, 97544707
61607731,41333510,47422970, 57233459
37247125,41477760,45960167, 59008578
44626625,41468114,59298625, 52262706
62690179,39394156,42569478, 51523170
34537266,52421565,67517606, 61345681
43846163,15962456,83096456, 92591106
38788237,38668740,9528849, 54852087
38739209,47282953,42708227, 56846440
79470765,54342530,49819687, 90502217
-53417176,46436906,55402747, 93591415
40028091,43390913,37216793, 91494039
66202427,18729910,49130973, 78214444
60711108,40359942,49468047, 57408379
52956623,73188079,65886674, 98900624
79068797,34959279,50759577, 76480123
-25138809,39239129,77961481, 80674090
23175791,81127750,-4729666, 95957074
40974412,49581536,90908056, 88333247
78431455,62365186,32228835, 95491613
24441757,43955408,41481993, 67441509
82293525,15639053,46393744, 94659130
-2867972,57025225,65081311, 63309051
23980901,19446961,-7984300, 74183781
54042779,42279377,13377682, 69868516
10639841,-7574286,51621293, 61631956
22072014,40746738,43994665, 66978889
69271991,43943897,46602251, 66687377
-35420794,27203396,49513570, 70807754
3144413,57537113,36099732, 54381651
4278806,34561820,97221379, 71457015
53615610,71772054,49374912, 81631820
19801880,42808744,82225228, 51705090
49122992,38814241,88275102, 83081658
78119432,39578304,42915157, 67482925
17878735,53853625,55177867, 62321827
42565434,47468265,75042742, 71946111
65241680,32782907,50050388, 64120052
-16323664,-2998485,25070907, 87382135
47788110,42148407,61909339, 58715268
61467804,65119861,64038275, 97495544
24196976,95959712,49218668, 76244771
-5144654,-5473077,66909535, 90603473
46534813,61092630,60078117, 74574960
76898971,39176981,58696134, 81641373
41528587,24127220,69886698, 68899100
3425630,81145510,65415508, 81470033
53869341,74853651,57085625, 92677891
74532243,28062758,23799133, 84336126
40539812,58186863,61508320, 67104270
38594956,49117999,56109864, 50692283
55309127,138847263,108296913, 82882863
87113392,40991034,41704971, 76678633
55453271,49709387,19971171, 72115294
67504354,64071522,58594890, 97040015
21667096,58312195,102089587, 88938139
40555081,66432399,-1023356, 94934656
19302458,69829778,94951843, 90953379
73546957,43126080,74288130, 97830405
101595184,39559578,41673238, 89697251
93754302,38567395,48328086, 87519019
72346538,57193439,25381391, 91082427
10458620,7764474,103100330, 97953499
4140555,92180667,50363594, 76738471
24553146,57915965,62281111, 51619462
85149284,40769471,29737234, 83105416
42440662,45120994,56952158, 51383102
50131342,39294808,90162558, 86458255
54104502,41960978,62215556, 65150534
3151975,11556560,77455520, 75823201
20491067,51110716,78168643, 56639723
23289280,65718817,69252713, 65130060
29017887,77297246,84105457, 97290148
-44463448,59235355,56164552, 98198100
19943963,33716004,45275973, 76886317
13156771,86967278,29143596, 63056101
1232806,43624832,-30470827, 91251985
-34563905,27718951,65983630, 85904908
31789851,102413940,47798789, 88872056
39466995,19735067,57091344, 58434348
88870785,53361860,42156795, 91258775
44837176,41137035,42593180, 57823357
30400700,55396948,77911197, 70578125
74996901,39985745,42208844, 64060802
28166928,-19082766,43396336, 72257426
52017064,41322084,55202254, 55410645
52166596,66118178,64848342, 90002373
74021285,43813334,42207943, 66911808
34406149,43601110,38486732, 96001113
53833022,60169120,60987017, 81858489
43608488,43594890,95319456, 89392070
-31313320,39762045,45872140, 55282157
2705470,41960271,80752768, 58342250
88308261,39008129,42241365, 76426996
34217726,41597422,75928041, 58612930
24760912,88194330,50657153, 70481681
49163602,46846901,47889362, 50769395
71456643,180016098,36094125, 74908512
86644349,54042872,35069494, 92541745
49859580,54787447,74965877, 86482221
95579643,52431887,41467328, 96348348
62395413,51435919,62096964, 82797606
45054162,-322062,70870781, 97857900
41396591,47757441,56379907, 52403181
19170071,41664784,45697463, 56952341
-16765111,60533373,47155663, 62788726
45981347,81772955,45433920, 80057464
63676247,42573460,58769889, 71888939
16978433,34408999,85837330, 50017818
44359893,55778700,79383559, 86391569
68961083,40837978,74457190, 91125504
63406173,44670509,43394789, 58340706
6043897,1978046,86400781, 91455313
41055286,68923096,46369316, 63216969
30419616,70422836,42885654, 50597354
9889263,-37647261,47180521, 88014756
47231185,50812063,53750946, 58663464
48756422,16920449,50979287, 64426151
46127377,4026267,64190912, 87902963
63785424,62374087,46282452, 79311679
11761516,32475816,111918484, 80757450
70383092,47688291,44677138, 69617767
17083211,80793321,88035081, 92780982
39875067,42785694,76339179, 65869276
-5157747,41748552,107083750, 92324593
18964146,93929980,61477178, 81240555
81536776,46433680,46801012, 81640941
94166011,38407521,42667604, 82110723
60728423,45142856,50542727, 63283338
36410855,83675087,50022721, 76978022
-20454635,58207989,66425766, 83422988
46246033,49048711,53659999, 55824102
72692893,153801242,85967425, 88751755
4540630,110718546,42553480, 87065938
42413753,73869042,57176342, 80328373
64971284,22940199,72937665, 96579688
91461930,49009151,45287658, 92628460
62390239,22723353,47540542, 68818344
59755013,45687319,49343292, 61654859
49353913,31367635,10119153, 69532639
54114140,2147482,65373607, 98951198
3389758,52962712,67513533, 55421240
78789828,40476770,32878831, 73311577
101155428,30649423,41221897, 93338801
53564934,5105594,62986141, 93056599
65593518,29456685,41715814, 59463715
-35586198,36028162,32986875, 59702033
-25295205,40482663,56964615, 61077194
18356784,58990025,114909279, 99125332
83621641,39628269,45906127, 76025394
22565697,35678102,49062922, 94579648
90954307,42117152,43480499, 83421318
46634969,35196426,-25094629, 98198958
85428189,41911485,47556600, 81765646
25555322,93081931,56727362, 82234151
10034755,-9212713,68730616, 80984855
30653862,87661731,64353386, 89538349
54019970,60577388,65566592, 87033313
-46807523,40903604,61224382, 87270136
17893775,103221148,46929713, 74913957
-2336941,50879914,94527016, 86078413
66394311,51471008,43652686, 68387253
94767703,46867970,45208013, 93712994
59467453,60147182,44071362, 70555245
56500093,40110380,47005458, 50485371
44935759,58409350,44642484, 54856886
-25936652,63053569,68868448, 96193758
-3652911,52146751,79512908, 73647159
-169202265,42151386,13051029, 68596274
60459549,20975954,51793535, 72888116
35124985,50824662,-15124583, 87998109
34880990,68694410,51533853, 61978553
38920017,58803910,80564410, 85157737
29843157,41108330,47648885, 56314980
21074227,72909178,61771468, 62624179
9838125,69066161,77292668, 74855317
18744824,68528106,56749391, 50891556
82615629,110551945,113401881, 60034541
47646119,53167861,44057630, 51740851
-8645886,47719672,57082272, 51782452
18742435,19359542,73491788, 54486361
28628063,64024523,68261245, 67783193
-4367728,27353731,15043545, 55101226
44220252,59414300,48614097, 59117932
-53150933,43778136,20986715, 94331539
44073554,44058530,77281473, 72283210
-51423316,39794197,45918527, 75470609
-46400175,58193913,55581310, 98510067
21231560,51342742,117869864, 97313437
49334661,50867463,37173524, 49952551
34518353,51698488,58407301, 51493446
49579601,41224150,-7199567, 84927150
50022590,61359544,51296327, 69547783
65581803,39541131,69165904, 81158256
50647754,28036152,48020535, 52243208
41851266,57475229,7534104, 78716225
94584788,30089642,45024090, 91130136
16872530,86258385,48730156, 58730328
25651622,11959003,64020486, 59324008
-31006107,41240777,8498402, 82137604
59345416,64504462,16149346, 94624372
-7199320,11165096,47348931, 56459739
64433908,32631081,32613193, 60855156
-48247428,39853162,49317918, 75753079
59472828,71798033,56428152, 94568314
50199173,38575248,96031971, 91675810
53410391,45628180,49470199, 55378206
28253312,65224871,16287708, 64114371
48024388,53001181,70365962, 78260780
61862542,55171444,36140910, 67817077
72192058,53097689,51400994, 83560106
78809911,49107357,46720626, 81507134
57655817,49040680,59830900, 73397244
62766255,58367804,47475695, 75479368
67207312,48690575,38738470, 64083516
31029112,44302007,-19806226, 82061251
84426497,25569875,49727148, 90194662
10220944,84077441,47022619, 59213751
-7972651,45617465,61905136, 53829907
65896971,29384137,55236005, 73359778
-26788008,12665215,69185094, 96384157
56373926,61638547,71420958, 96302816
-21405301,70321065,44140431, 74201362
33083246,39881322,-17940787, 77829158
39063928,51474235,61556796, 58964335
49776248,-7830819,54510505, 93728494
-50909791,52761648,49919428, 91925465
-42219563,39267035,51882373, 71703522
40627295,34672239,101525417, 89091398
64442894,44879322,44542139, 60733604
7842447,116011972,41239156, 87743270
17986270,71220304,76649477, 72725433
-2778648,93554527,33733404, 80988982
74227354,38484934,61189461, 80771029
67374791,29503089,12697253, 86839939
36901553,45509798,42667739, 93969939
67741453,41508029,38214645, 57958652
39838932,44088106,72438432, 63234758
-17699291,44623566,70400983, 71058431
62619439,38900985,30509177, 57935189
-71115746,36329383,46222154, 94084716
71582977,56679423,51858231, 86990077
34719570,54570413,68612631, 64771858
39232226,98610883,35657109, 89109806
22046071,74534659,71112688, 74562653
2337724,78745004,48845087, 63586988
81958141,48668954,44237309, 81733650
-7983002,87000741,61648479, 94966922
74972933,7454373,42600641, 91730106
83410279,48054904,38105221, 80283836
47344704,50076433,54833749, 59124178
94368284,42246002,41687027, 85170742
53658022,51321804,12380415, 79523301
-16373428,76924070,59966726, 91598822
59334769,52250025,56665559, 75119711
61523087,53092788,42116978, 63602139
23179374,39084795,43638284, 54021012
76593609,43687739,61151025, 88301777
46531572,87841047,53713289, 94955174
54105876,58365500,51936633, 71277497
38659030,55355817,50125835, 51009938
47973182,58142028,54423515, 67407980
36896452,61199431,93115389, 98080515
32639395,48262743,47842085, 61615843
53294473,96113478,42978828, 99256062
66267076,54754163,27635266, 80309811
51431803,-14198103,33165967, 94129469
41607155,73868426,64915815, 87260825
30762209,57486728,57759330, 52877818
38041807,51199067,-1578960, 77743648
-9839016,63868081,76308339, 88350000
-16377070,44514916,65315581, 64542344
40203924,23881404,81014224, 78948015
111468030,38399740,41998204, 98735246
-11358229,-3459043,48459621, 76353384
1330458,67279977,72760905, 77045103
34617827,24921756,83692617, 74999695
-57983612,42268974,43298327, 81885459
58273723,39683107,71947888, 76773962
13049616,58500596,52330597, 97863811
55896556,14239812,43556311, 66823950
61795877,31499868,46925120, 58832116
-34085513,38603513,11294554, 79783732
52499965,56030605,61227059, 76627021
36834041,-13659447,46673313, 78777701
-50244957,39769620,70703567, 99052731
42751637,48885115,87662958, 86169724
20665855,12157814,71335013, 61454001
46181257,40186354,15734083, 57557587
35506002,46343792,98421697, 87140745
21898615,82406398,73101692, 84276157
67296976,39872201,43237139, 57275573
25313239,43198989,74653991, 50035461
71649332,40156035,36472829, 62256350
13780708,44334822,45410131, 91680024
24159723,65464095,71159039, 67652265
85651290,39196794,12422890, 99349088
48092133,53549169,58943626, 67454250
52837652,60784257,53762180, 74253430
24535676,-11407681,41700278, 59254526
47781711,38747025,78561855, 71959941
29900775,35554268,77435675, 53393205
31597088,-9120496,58197117, 80525772
30348982,82270183,47024748, 66513408
21706390,80567729,62958613, 72102147
51300111,47652779,86861446, 92683586
-23728995,80541761,54302971, 96908348
71314343,32901269,41794246, 61818529
46961110,67758145,62316364, 83904860
71215989,65937976,45480401, 89503795
-32557343,48196217,55894289, 74982479
59154606,39659469,26492530, 59245369
19663064,13522004,43972643, 93154213
2610333,59876451,64421058, 60021733
19502259,23179892,120170711, 98103973
5955883,-9916403,70224161, 87260891
-44944651,51169662,46053228, 80502251
62503246,40509674,41592662, 51474851
96959296,28402927,44448357, 94615723
17675201,68816826,57668848, 51030149
65208480,46790192,51104431, 69972390
-6575619,64359366,51878055, 61147799
61200381,41362049,47450442, 56882697
85839079,21289390,42883337, 89044119
36727326,50660184,68135186, 62392172
25671654,52234232,45958942, 54158036
22740018,-13299961,61230857, 78881770
-50779391,38547797,37100305, 70615994
31039917,105956357,52909402, 96775288
64827681,54902715,41637088, 68236719
70454640,54156547,41111716, 72592370
-45307076,49614872,34981119, 78329961
34989979,98636940,45696258, 86192568
-17781435,48151601,76593819, 80861472
88942975,45837513,46063052, 87712890
45828738,55915066,81687181, 90300427
33273104,51500755,77113564, 68756766
54348736,51509051,44091714, 56818819
75671517,46036210,60777129, 89354168
28232262,93440204,45267145, 73808990
83673016,18521381,42091824, 88854645
-12204532,54913366,277580, 85229460
37994278,93340320,42577762, 80781702
41498723,70072670,50468583, 68909235
-45694458,31527482,55777865, 83021162
68523992,64543135,44288505, 84225056
35824574,39544357,55066544, 58383867
59998261,57984959,55332013, 80184501
24174731,63183109,62169333, 56396425
36039617,63515613,53093111, 59517592
199019655,72107599,44645346, 66220848
54926624,58145218,19339427, 80656248
45293379,47557733,86499853, 86220510
19058100,79610316,-3706924, 89299143
69813114,68956789,53251549, 98890984
-19553040,57095307,53075537, 68058664
47292189,75531854,47454471, 77148154
77149361,33328432,41697736, 67129692
54211450,43092009,47997909, 52170959
68236906,41269898,68116063, 84492379
16854327,96867129,47862700, 68453576
22019266,72941977,85005218, 86835710
40568390,42406733,101991772, 91836130
22114068,106010666,64239035, 99233177
45859486,45822079,62286017, 60836848
28044550,58440921,57109265, 50464302
3480407,86314793,59027546, 80196544
31556099,38481559,76864155, 53771402
22045478,32525317,62360514, 85513567
-60538009,38570439,56446414, 93889774
80897608,40912089,62551170, 91230217
156997577,40496836,-32014684, 88229654
46251042,52541631,52836982, 58498895
66011381,146740281,104278480, 68847213
94896365,35805756,43419157, 84120810
42902045,68903231,52490284, 71164886
17181700,63812521,78732157, 66595718
79000048,24905973,52655647, 88360731
31032336,77861179,59246279, 75009181
16972353,41949376,60113922, 69982958
65059012,50444197,43277825, 65650499
89887659,58909424,43003043, 98669387
-175689075,39549030,59257131, 96286655
-38829060,33689553,45081446, 63297307
25278051,71921550,68469788, 72539175
65917987,39728542,33187441, 59383019
47143917,84843768,45814335, 84671737
28721978,-22530819,61649266, 94512978
40622737,56248436,82375549, 86116028
-21497563,48928308,57043461, 65803973
34272203,64584447,54546443, 60272462
30936992,51190169,106132649, 95129344
-33082378,57759958,66828158, 96005138
23524091,75849342,27368969, 58928376
74923380,30197024,57070114, 83407645
65875347,50049558,46742159, 69536445
54750611,77081879,33239904, 85516507
26706559,34314379,44009591, 88863097
50358577,56421491,51592989, 65242404
3733155,104018123,35572009, 83102071
56821001,55543861,50203714, 69437812
43371520,39885414,63760084, 53886285
43063956,47301104,67979498, 65213884
-988355,49692168,105180479, 94195729
50994470,43394408,81731320, 82989726
70807873,43325100,20004224, 81052574
75601607,35236493,64230048, 86206457
81700507,24459644,59107616, 97959917
22275642,82721291,80243176, 92109658
21673579,23876100,80946749, 60355179
-39702796,42171081,49249417, 69458325
80884817,42022174,41592438, 71369134
67463990,50617828,45436165, 70387636
43057946,77295435,47686042, 74908810
42069902,84433970,42282586, 75656028
32067933,70757055,64781007, 74475853
77818000,42741809,41124734, 68554254
23202341,50850398,6614116, 54362589
76350799,39979764,49848974, 73048777
38871595,85966329,42537780, 74244988
48357998,51584849,68592374, 75404518
79266466,40123155,71191634, 97450503
47921176,39897617,65617378, 60305438
17720523,88336126,49794145, 62720035
38668002,46966386,72008773, 64512409
55486996,65995056,49519597, 77870920
26418370,61638623,42101152, 81323341
141089527,73455460,-11028282, 51294696
25737160,-2860001,29267131, 60995663
51496492,77076332,47850296, 83292357
87169708,31750516,41638591, 78668706
46653914,76577320,24726543, 85428500
17144624,13112513,90939628, 76582777
51121593,73437159,50024943, 81452931
52842029,-9680642,54191866, 98325459
18759176,47216933,41416270, 63292968
37688164,71339295,43606305, 59503000
84496915,39219048,57676035, 88261242
89240220,34579029,41078796, 77350880
70664904,43528557,36274733, 64842618
27737612,87425294,51157474, 73189986
89935526,53082076,49536983, 99424028
58393564,33326936,44569535, 51247076
32721491,67532155,60688129, 67811274
71262591,35117136,64614096, 82370565
45303536,73497249,46548925, 72218962
-37861891,63705166,44024113, 83926187
21721113,42503480,-27462007, 78610438
38994695,45089658,62055810, 53009402
71047357,46334122,64342531, 88593316
36331481,58841725,56467205, 58509739
23709459,12747184,69501665, 62074889
74258619,41933981,43767629, 66830235
35494835,54492660,7059210, 69852095
92331718,49950221,45095172, 94246352
42690040,72306865,24619196, 77301657
27107688,55202317,47820408, 66659932
51589077,44762589,47900666, 51121620
42432800,50083942,62978387, 62364365
96406397,102137829,116278597, 58959937
74130106,50127970,12262935, 98919259
61634938,209693518,45117545, 53628760
63543286,42390604,28566266, 64291434
35523130,31574108,98816714, 84376694
23698497,114534416,30025095, 95132097
33815739,69439674,51187536, 61312185
32309883,90345840,59731275, 89256256
61834289,9294169,42219195, 76370427